{
	"local": {
		"DB": {
			"HOST": "127.0.0.1",
			"DB_USER": "root",
			"DB_PASS": "",
			"DB_NAME": "superkeren"
		}
	},
	"development": {
		"DB": {
			"HOST": "159.65.131.78",
			"DB_USER": "erick",
			"DB_PASS": "erick",
			"DB_NAME": "superkeren"
		}
	},
	"production": {
		"DB": {
			"HOST": "159.65.131.78",
			"DB_USER": "erick",
			"DB_PASS": "erick",
			"DB_NAME": "superkeren"
		}
	}
}