{
	"local": {
		"jwtKey": "erickganteng123",
		"pass": "erickgantengbanget123"
	},
	"dev1": {
		"jwtKey": "erickganteng123",
		"pass": "erickgantengbanget123"
	},
	"dev2": {
		"jwtKey": "erickganteng123",
		"pass": "erickgantengbanget123"
	},
	"dev3": {
		"jwtKey": "erickganteng123",
		"pass": "erickgantengbanget123"
	},
	"production": {
		"jwtKey": "erickganteng123",
		"pass": "erickgantengbanget123"
	}
}