{
   "header": {
      "segment": [
         "region",
         "category",
         "product"
      ],
      "measureName": [
         "Order Created",
         "Order Calceled",
         "Order Done"
      ],
      "timeFrame": [
         {
            "type": "quarter",
            "title": "Q1",
            "content": [
               {
                  "type": "month",
                  "title": "January",
                  "content": [
                     {
                        "type": "week",
                        "title": "A1",
                        "content": false
                     },
                     {
                        "type": "week",
                        "title": "A2",
                        "content": false
                     },
                     {
                        "type": "week",
                        "title": "A3",
                        "content": false
                     },
                     {
                        "type": "week",
                        "title": "A4",
                        "content": false
                     }
                  ]
               },
               {
                  "type": "month",
                  "title": "February",
                  "content": [
                     {
                        "type": "week",
                        "title": "B1",
                        "content": false
                     },
                     {
                        "type": "week",
                        "title": "B2",
                        "content": false
                     },
                     {
                        "type": "week",
                        "title": "B3",
                        "content": false
                     },
                     {
                        "type": "week",
                        "title": "B4",
                        "content": false
                     }
                  ]
               },
               {
                  "type": "month",
                  "title": "Maret",
                  "content": [
                     {
                        "type": "week",
                        "title": "C1",
                        "content": false
                     },
                     {
                        "type": "week",
                        "title": "C2",
                        "content": false
                     },
                     {
                        "type": "week",
                        "title": "C3",
                        "content": false
                     },
                     {
                        "type": "week",
                        "title": "C4",
                        "content": false
                     }
                  ]
               }
            ]
         },
         {
            "type": "quarter",
            "title": "Q2",
            "content": [
               {
                  "type": "month",
                  "title": "April",
                  "content": [
                     {
                        "type": "week",
                        "title": "D1",
                        "content": false
                     },
                     {
                        "type": "week",
                        "title": "D2",
                        "content": false
                     },
                     {
                        "type": "week",
                        "title": "D3",
                        "content": false
                     },
                     {
                        "type": "week",
                        "title": "D4",
                        "content": false
                     }
                  ]
               },
               {
                  "type": "month",
                  "title": "Mei",
                  "content": [
                     {
                        "type": "week",
                        "title": "E1",
                        "content": false
                     },
                     {
                        "type": "week",
                        "title": "E2",
                        "content": false
                     },
                     {
                        "type": "week",
                        "title": "E3",
                        "content": false
                     },
                     {
                        "type": "week",
                        "title": "E4",
                        "content": false
                     },
                     {
                        "type": "week",
                        "title": "E4",
                        "content": false
                     }
                  ]
               },
               {
                  "type": "month",
                  "title": "Juni",
                  "content": [
                     {
                        "type": "week",
                        "title": "F1",
                        "content": false
                     },
                     {
                        "type": "week",
                        "title": "F2",
                        "content": false
                     },
                     {
                        "type": "week",
                        "title": "F3",
                        "content": false
                     },
                     {
                        "type": "week",
                        "title": "F4",
                        "content": false
                     }
                  ]
               }
            ]
         },
         {
            "type": "quarter",
            "title": "Q3",
            "content": [
               {
                  "type": "month",
                  "title": "Juli",
                  "content": [
                     {
                        "type": "week",
                        "title": "G1",
                        "content": false
                     },
                     {
                        "type": "week",
                        "title": "G2",
                        "content": false
                     },
                     {
                        "type": "week",
                        "title": "G3",
                        "content": false
                     },
                     {
                        "type": "week",
                        "title": "G4",
                        "content": false
                     }
                  ]
               },
               {
                  "type": "month",
                  "title": "Agustus",
                  "content": [
                     {
                        "type": "week",
                        "title": "H1",
                        "content": false
                     },
                     {
                        "type": "week",
                        "title": "H2",
                        "content": false
                     },
                     {
                        "type": "week",
                        "title": "H3",
                        "content": false
                     },
                     {
                        "type": "week",
                        "title": "H4",
                        "content": false
                     }
                  ]
               },
               {
                  "type": "month",
                  "title": "September",
                  "content": [
                     {
                        "type": "week",
                        "title": "I1",
                        "content": false
                     },
                     {
                        "type": "week",
                        "title": "I2",
                        "content": false
                     },
                     {
                        "type": "week",
                        "title": "I3",
                        "content": false
                     },
                     {
                        "type": "week",
                        "title": "I4",
                        "content": false
                     }
                  ]
               }
            ]
         },
         {
            "type": "quarter",
            "title": "Q4",
            "content": [
               {
                  "type": "month",
                  "title": "Oktober",
                  "content": [
                     {
                        "type": "week",
                        "title": "J1",
                        "content": false
                     },
                     {
                        "type": "week",
                        "title": "J2",
                        "content": false
                     },
                     {
                        "type": "week",
                        "title": "J3",
                        "content": false
                     },
                     {
                        "type": "week",
                        "title": "J4",
                        "content": false
                     },
                     {
                        "type": "week",
                        "title": "J5",
                        "content": false
                     }
                  ]
               },
               {
                  "type": "month",
                  "title": "November",
                  "content": [
                     {
                        "type": "week",
                        "title": "K1",
                        "content": false
                     },
                     {
                        "type": "week",
                        "title": "K2",
                        "content": false
                     },
                     {
                        "type": "week",
                        "title": "K3",
                        "content": false
                     },
                     {
                        "type": "week",
                        "title": "K4",
                        "content": false
                     }
                  ]
               },
               {
                  "type": "month",
                  "title": "Desember",
                  "content": [
                     {
                        "type": "week",
                        "title": "L1",
                        "content": false
                     },
                     {
                        "type": "week",
                        "title": "L2",
                        "content": false
                     },
                     {
                        "type": "week",
                        "title": "L3",
                        "content": false
                     },
                     {
                        "type": "week",
                        "title": "L4",
                        "content": false
                     }
                  ]
               }
            ]
         }         
      ]
   },
   "body": {
      "left": [
         {
            "type": "region",
            "title": "jakarta",
            "content": [
               {
                  "type": "category",
                  "title": "category A",
                  "content": [
                     {
                        "type": "product",
                        "title": "produk A",
                        "content": false
                     },
                     {
                        "type": "product",
                        "title": "produk B",
                        "content": false
                     },
                     {
                        "type": "product",
                        "title": "produk C",
                        "content": false
                     }
                  ]
               },
               {
                  "type": "category",
                  "title": "category B",
                  "content": [
                     {
                        "type": "product",
                        "title": "produk D",
                        "content": false
                     },
                     {
                        "type": "product",
                        "title": "produk E",
                        "content": false
                     },
                     {
                        "type": "product",
                        "title": "produk F",
                        "content": false
                     }
                  ]
               }
            ]
         },
         {
            "type": "region",
            "title": "depok",
            "content": [
               {
                  "type": "category",
                  "title": "category A",
                  "content": [
                     {
                        "type": "product",
                        "title": "produk A",
                        "content": false
                     },
                     {
                        "type": "product",
                        "title": "produk B",
                        "content": false
                     },
                     {
                        "type": "product",
                        "title": "produk C",
                        "content": false
                     }
                  ]
               },
               {
                  "type": "category",
                  "title": "category B",
                  "content": [
                     {
                        "type": "product",
                        "title": "produk A",
                        "content": false
                     },
                     {
                        "type": "product",
                        "title": "produk B",
                        "content": false
                     },
                     {
                        "type": "product",
                        "title": "produk C",
                        "content": false
                     }
                  ]
               }
            ]
         },
         {
            "type": "region",
            "title": "purwakarta",
            "content": [
               {
                  "type": "category",
                  "title": "category A",
                  "content": [
                     {
                        "type": "product",
                        "title": "produk A",
                        "content": false
                     },
                     {
                        "type": "product",
                        "title": "produk B",
                        "content": false
                     },
                     {
                        "type": "product",
                        "title": "produk C",
                        "content": false
                     }
                  ]
               },
               {
                  "type": "category",
                  "title": "category B",
                  "content": [
                     {
                        "type": "product",
                        "title": "produk A",
                        "content": false
                     },
                     {
                        "type": "product",
                        "title": "produk B",
                        "content": false
                     },
                     {
                        "type": "product",
                        "title": "produk C",
                        "content": false
                     }
                  ]
               }
            ]
         }
      ],
      "right": [
         [
            1,
            2,
            3,
            4,
            5,
            6,
            7,
            8,
            9,
            10,
            11,
            12,
            13,
            14,
            15,
            16,
            17,
            18,
            19,
            20,
            21,
            22,
            23,
            24,
            25,
            26,
            27,
            28,
            29,
            30,
            31,
            32,
            33,
            34,
            35,
            36,
            37,
            38,
            39,
            40,
            41,
            42,
            43,
            44,
            45,
            46,
            47,
            48,
            49,
            50
         ],
         [
            1,
            2,
            3,
            4,
            5,
            6,
            7,
            8,
            9,
            10,
            11,
            12,
            13,
            14,
            15,
            16,
            17,
            18,
            19,
            20,
            21,
            22,
            23,
            24,
            25,
            26,
            27,
            28,
            29,
            30,
            31,
            32,
            33,
            34,
            35,
            36,
            37,
            38,
            39,
            40,
            41,
            42,
            43,
            44,
            45,
            46,
            47,
            48,
            49,
            50
         ],
         [
            1,
            2,
            3,
            4,
            5,
            6,
            7,
            8,
            9,
            10,
            11,
            12,
            13,
            14,
            15,
            16,
            17,
            18,
            19,
            20,
            21,
            22,
            23,
            24,
            25,
            26,
            27,
            28,
            29,
            30,
            31,
            32,
            33,
            34,
            35,
            36,
            37,
            38,
            39,
            40,
            41,
            42,
            43,
            44,
            45,
            46,
            47,
            48,
            49,
            50
         ],
         [
            1,
            2,
            3,
            4,
            5,
            6,
            7,
            8,
            9,
            10,
            11,
            12,
            13,
            14,
            15,
            16,
            17,
            18,
            19,
            20,
            21,
            22,
            23,
            24,
            25,
            26,
            27,
            28,
            29,
            30,
            31,
            32,
            33,
            34,
            35,
            36,
            37,
            38,
            39,
            40,
            41,
            42,
            43,
            44,
            45,
            46,
            47,
            48,
            49,
            50
         ],
         [            
            1,
            2,
            3,
            4,
            5,
            6,
            7,
            8,
            9,
            10,
            11,
            12,
            13,
            14,
            15,
            16,
            17,
            18,
            19,
            20,
            21,
            22,
            23,
            24,
            25,
            26,
            27,
            28,
            29,
            30,
            31,
            32,
            33,
            34,
            35,
            36,
            37,
            38,
            39,
            40,
            41,
            42,
            43,
            44,
            45,
            46,
            47,
            48,
            49,
            50
         ],
         [
            1,
            2,
            3,
            4,
            5,
            6,
            7,
            8,
            9,
            10,
            11,
            12,
            13,
            14,
            15,
            16,
            17,
            18,
            19,
            20,
            21,
            22,
            23,
            24,
            25,
            26,
            27,
            28,
            29,
            30,
            31,
            32,
            33,
            34,
            35,
            36,
            37,
            38,
            39,
            40,
            41,
            42,
            43,
            44,
            45,
            46,
            47,
            48,
            49,
            50
         ],
         [
            1,
            2,
            3,
            4,
            5,
            6,
            7,
            8,
            9,
            10,
            11,
            12,
            13,
            14,
            15,
            16,
            17,
            18,
            19,
            20,
            21,
            22,
            23,
            24,
            25,
            26,
            27,
            28,
            29,
            30,
            31,
            32,
            33,
            34,
            35,
            36,
            37,
            38,
            39,
            40,
            41,
            42,
            43,
            44,
            45,
            46,
            47,
            48,
            49,
            50
         ],
         [
            1,
            2,
            3,
            4,
            5,
            6,
            7,
            8,
            9,
            10,
            11,
            12,
            13,
            14,
            15,
            16,
            17,
            18,
            19,
            20,
            21,
            22,
            23,
            24,
            25,
            26,
            27,
            28,
            29,
            30,
            31,
            32,
            33,
            34,
            35,
            36,
            37,
            38,
            39,
            40,
            41,
            42,
            43,
            44,
            45,
            46,
            47,
            48,
            49,
            50
         ],
         [
            1,
            2,
            3,
            4,
            5,
            6,
            7,
            8,
            9,
            10,
            11,
            12,
            13,
            14,
            15,
            16,
            17,
            18,
            19,
            20,
            21,
            22,
            23,
            24,
            25,
            26,
            27,
            28,
            29,
            30,
            31,
            32,
            33,
            34,
            35,
            36,
            37,
            38,
            39,
            40,
            41,
            42,
            43,
            44,
            45,
            46,
            47,
            48,
            49,
            50
         ],
         [
            1,
            2,
            3,
            4,
            5,
            6,
            7,
            8,
            9,
            10,
            11,
            12,
            13,
            14,
            15,
            16,
            17,
            18,
            19,
            20,
            21,
            22,
            23,
            24,
            25,
            26,
            27,
            28,
            29,
            30,
            31,
            32,
            33,
            34,
            35,
            36,
            37,
            38,
            39,
            40,
            41,
            42,
            43,
            44,
            45,
            46,
            47,
            48,
            49,
            50
         ],
         [
            1,
            2,
            3,
            4,
            5,
            6,
            7,
            8,
            9,
            10,
            11,
            12,
            13,
            14,
            15,
            16,
            17,
            18,
            19,
            20,
            21,
            22,
            23,
            24,
            25,
            26,
            27,
            28,
            29,
            30,
            31,
            32,
            33,
            34,
            35,
            36,
            37,
            38,
            39,
            40,
            41,
            42,
            43,
            44,
            45,
            46,
            47,
            48,
            49,
            50
         ],
         [
            1,
            2,
            3,
            4,
            5,
            6,
            7,
            8,
            9,
            10,
            11,
            12,
            13,
            14,
            15,
            16,
            17,
            18,
            19,
            20,
            21,
            22,
            23,
            24,
            25,
            26,
            27,
            28,
            29,
            30,
            31,
            32,
            33,
            34,
            35,
            36,
            37,
            38,
            39,
            40,
            41,
            42,
            43,
            44,
            45,
            46,
            47,
            48,
            49,
            50
         ],
         [
            1,
            2,
            3,
            4,
            5,
            6,
            7,
            8,
            9,
            10,
            11,
            12,
            13,
            14,
            15,
            16,
            17,
            18,
            19,
            20,
            21,
            22,
            23,
            24,
            25,
            26,
            27,
            28,
            29,
            30,
            31,
            32,
            33,
            34,
            35,
            36,
            37,
            38,
            39,
            40,
            41,
            42,
            43,
            44,
            45,
            46,
            47,
            48,
            49,
            50
         ],
         [
            1,
            2,
            3,
            4,
            5,
            6,
            7,
            8,
            9,
            10,
            11,
            12,
            13,
            14,
            15,
            16,
            17,
            18,
            19,
            20,
            21,
            22,
            23,
            24,
            25,
            26,
            27,
            28,
            29,
            30,
            31,
            32,
            33,
            34,
            35,
            36,
            37,
            38,
            39,
            40,
            41,
            42,
            43,
            44,
            45,
            46,
            47,
            48,
            49,
            50
         ],
         [
            1,
            2,
            3,
            4,
            5,
            6,
            7,
            8,
            9,
            10,
            11,
            12,
            13,
            14,
            15,
            16,
            17,
            18,
            19,
            20,
            21,
            22,
            23,
            24,
            25,
            26,
            27,
            28,
            29,
            30,
            31,
            32,
            33,
            34,
            35,
            36,
            37,
            38,
            39,
            40,
            41,
            42,
            43,
            44,
            45,
            46,
            47,
            48,
            49,
            50
         ],
         [
            1,
            2,
            3,
            4,
            5,
            6,
            7,
            8,
            9,
            10,
            11,
            12,
            13,
            14,
            15,
            16,
            17,
            18,
            19,
            20,
            21,
            22,
            23,
            24,
            25,
            26,
            27,
            28,
            29,
            30,
            31,
            32,
            33,
            34,
            35,
            36,
            37,
            38,
            39,
            40,
            41,
            42,
            43,
            44,
            45,
            46,
            47,
            48,
            49,
            50
         ],
         [
            1,
            2,
            3,
            4,
            5,
            6,
            7,
            8,
            9,
            10,
            11,
            12,
            13,
            14,
            15,
            16,
            17,
            18,
            19,
            20,
            21,
            22,
            23,
            24,
            25,
            26,
            27,
            28,
            29,
            30,
            31,
            32,
            33,
            34,
            35,
            36,
            37,
            38,
            39,
            40,
            41,
            42,
            43,
            44,
            45,
            46,
            47,
            48,
            49,
            50
         ],
         [
            1,
            2,
            3,
            4,
            5,
            6,
            7,
            8,
            9,
            10,
            11,
            12,
            13,
            14,
            15,
            16,
            17,
            18,
            19,
            20,
            21,
            22,
            23,
            24,
            25,
            26,
            27,
            28,
            29,
            30,
            31,
            32,
            33,
            34,
            35,
            36,
            37,
            38,
            39,
            40,
            41,
            42,
            43,
            44,
            45,
            46,
            47,
            48,
            49,
            50
         ]
      ]
   }
}